%YAML 1.1
%TAG !u! tag:unity3d.com,2011:
--- !u!1001 &7272092239241314347
PrefabInstance:
  m_ObjectHideFlags: 0
  serializedVersion: 2
  m_Modification:
    m_TransformParent: {fileID: 0}
    m_Modifications:
    - target: {fileID: 180449837846121182, guid: 87c4865a6db0d45488f62d3b2b46205c, type: 3}
      propertyPath: m_Mesh
      value: 
      objectReference: {fileID: -2432090755550338912, guid: e618ab8e55a3ed942a408f4d1b7f896e, type: 3}
    - target: {fileID: 559241867749857287, guid: 87c4865a6db0d45488f62d3b2b46205c, type: 3}
      propertyPath: m_Name
      value: Tile_RoadStraight
      objectReference: {fileID: 0}
    - target: {fileID: 559241867749857288, guid: 87c4865a6db0d45488f62d3b2b46205c, type: 3}
      propertyPath: m_RootOrder
      value: 0
      objectReference: {fileID: 0}
    - target: {fileID: 559241867749857288, guid: 87c4865a6db0d45488f62d3b2b46205c, type: 3}
      propertyPath: m_LocalPosition.x
      value: 0
      objectReference: {fileID: 0}
    - target: {fileID: 559241867749857288, guid: 87c4865a6db0d45488f62d3b2b46205c, type: 3}
      propertyPath: m_LocalPosition.y
      value: 0
      objectReference: {fileID: 0}
    - target: {fileID: 559241867749857288, guid: 87c4865a6db0d45488f62d3b2b46205c, type: 3}
      propertyPath: m_LocalPosition.z
      value: 0
      objectReference: {fileID: 0}
    - target: {fileID: 559241867749857288, guid: 87c4865a6db0d45488f62d3b2b46205c, type: 3}
      propertyPath: m_LocalRotation.w
      value: 1
      objectReference: {fileID: 0}
    - target: {fileID: 559241867749857288, guid: 87c4865a6db0d45488f62d3b2b46205c, type: 3}
      propertyPath: m_LocalRotation.x
      value: 0
      objectReference: {fileID: 0}
    - target: {fileID: 559241867749857288, guid: 87c4865a6db0d45488f62d3b2b46205c, type: 3}
      propertyPath: m_LocalRotation.y
      value: 0
      objectReference: {fileID: 0}
    - target: {fileID: 559241867749857288, guid: 87c4865a6db0d45488f62d3b2b46205c, type: 3}
      propertyPath: m_LocalRotation.z
      value: 0
      objectReference: {fileID: 0}
    - target: {fileID: 559241867749857288, guid: 87c4865a6db0d45488f62d3b2b46205c, type: 3}
      propertyPath: m_LocalEulerAnglesHint.x
      value: 0
      objectReference: {fileID: 0}
    - target: {fileID: 559241867749857288, guid: 87c4865a6db0d45488f62d3b2b46205c, type: 3}
      propertyPath: m_LocalEulerAnglesHint.y
      value: 0
      objectReference: {fileID: 0}
    - target: {fileID: 559241867749857288, guid: 87c4865a6db0d45488f62d3b2b46205c, type: 3}
      propertyPath: m_LocalEulerAnglesHint.z
      value: 0
      objectReference: {fileID: 0}
    - target: {fileID: 989012313373039941, guid: 87c4865a6db0d45488f62d3b2b46205c, type: 3}
      propertyPath: isPlaceable
      value: 0
      objectReference: {fileID: 0}
    m_RemovedComponents: []
  m_SourcePrefab: {fileID: 100100000, guid: 87c4865a6db0d45488f62d3b2b46205c, type: 3}
